<?xml version="1.0" encoding="utf-8"?>
<!-- Generator: Adobe Illustrator 16.0.0, SVG Export Plug-In . SVG Version: 6.00 Build 0)  -->
<!DOCTYPE svg PUBLIC "-//W3C//DTD SVG 1.1//EN" "http://www.w3.org/Graphics/SVG/1.1/DTD/svg11.dtd">
<svg version="1.1" xmlns="http://www.w3.org/2000/svg" xmlns:xlink="http://www.w3.org/1999/xlink" x="0px" y="0px"
	 width="252.874px" height="172.432px" viewBox="0 0 252.874 172.432" enable-background="new 0 0 252.874 172.432"
	 xml:space="preserve">
<g id="Calque_1">
</g>
<g id="logo">
	<g>
		<path opacity="0.3" fill="#FFFFFF" d="M209.78,91.098c0,22.849-18.523,41.37-41.371,41.37c-22.847,0-41.372-18.521-41.372-41.37
			c0-22.851,18.525-41.372,41.372-41.372C191.256,49.726,209.78,68.247,209.78,91.098z"/>
		<g>
			<path fill="#303031" d="M42.137,64.716c0,0,3.932,11.14,29.495,11.14l9.421-11.14H42.137z"/>
			<path opacity="0.7" fill="#303031" d="M81.053,64.716h20.074c0,0-3.933,11.14-29.495,11.14L81.053,64.716z"/>
			<g>
				<line fill="#303031" x1="71.632" y1="8.035" x2="90.035" y2="64.649"/>
				
					<rect x="51.07" y="35.832" transform="matrix(0.3092 0.951 -0.951 0.3092 90.4035 -51.7692)" fill="#303031" width="59.532" height="1.019"/>
			</g>
			<g>
				<line fill="#303031" x1="53.326" y1="64.649" x2="71.728" y2="8.035"/>
				
					<rect x="62.017" y="6.577" transform="matrix(0.9506 0.3103 -0.3103 0.9506 14.3645 -17.6092)" fill="#303031" width="1.018" height="59.53"/>
			</g>
			<polygon fill="#303031" points="72.844,8.045 126.874,5.728 126.874,10.878 			"/>
			<polygon fill="#303031" points="89.986,117.713 100.506,109.716 114.496,109.716 120.452,105.335 125.66,117.762 			"/>
			<polygon opacity="0.8" fill="#303031" points="71.874,5.728 68.242,8.035 71.874,10.353 			"/>
			<polygon opacity="0.6" fill="#303031" points="71.874,10.353 75.504,8.045 71.874,5.728 			"/>
			<polygon fill="#303031" points="124.193,10.807 125.605,0 125.66,118.009 120.452,105.583 			"/>
			<path fill="#303031" d="M150.071,64.716c0,0,3.932,11.14,29.493,11.14l11.062-11.14H150.071z"/>
			<path opacity="0.7" fill="#303031" d="M209.059,64.716h-18.433l-11.062,11.14C205.129,75.855,209.059,64.716,209.059,64.716z"/>
			<g>
				<line fill="#303031" x1="179.564" y1="8.035" x2="161.163" y2="64.649"/>
				
					<rect x="140.599" y="35.833" transform="matrix(-0.3091 0.951 -0.951 -0.3091 257.5899 -114.4441)" fill="#303031" width="59.53" height="1.018"/>
			</g>
			<g>
				<line fill="#303031" x1="197.874" y1="64.649" x2="179.469" y2="8.035"/>
				
					<rect x="188.162" y="6.577" transform="matrix(-0.9507 0.31 -0.31 -0.9507 379.3141 12.3971)" fill="#303031" width="1.019" height="59.53"/>
			</g>
			<polygon opacity="0.6" fill="#303031" points="180.901,8.045 126.874,5.728 126.874,10.878 			"/>
			<polygon opacity="0.8" fill="#303031" points="161.212,117.713 150.691,109.716 136.702,109.716 130.746,105.335 
				125.537,117.762 			"/>
			<polygon opacity="0.5" fill="#303031" points="125.593,0 130.746,5.946 125.66,7.066 			"/>
			<polygon opacity="0.8" fill="#303031" points="179.874,5.728 183.505,8.035 179.874,10.353 			"/>
			<polygon opacity="0.6" fill="#303031" points="179.874,10.353 176.243,8.045 179.874,5.728 			"/>
			<polygon opacity="0.7" fill="#303031" points="127.006,10.807 125.593,0 125.537,118.009 130.746,105.583 			"/>
			<path fill="#303031" d="M210.685,106.972"/>
			<polygon opacity="0.8" fill="#303031" points="125.605,0 120.452,5.946 125.66,7.066 			"/>
		</g>
		<g>
			<path fill="#FFFFFF" d="M37.246,167.662v-9.895h1.67v8.31h4.516v1.585H37.246z"/>
			<path fill="#FFFFFF" d="M51.132,167.662h-1.444v-1.005c-0.623,0.745-1.458,1.118-2.505,1.118c-0.784,0-1.432-0.222-1.946-0.665
				c-0.515-0.443-0.771-1.036-0.771-1.776c0-0.741,0.273-1.296,0.821-1.664s1.288-0.552,2.223-0.552h2.052v-0.283
				c0-1-0.557-1.5-1.67-1.5c-0.698,0-1.425,0.255-2.18,0.764l-0.708-0.99c0.916-0.727,1.954-1.09,3.114-1.09
				c0.887,0,1.611,0.224,2.173,0.672s0.842,1.153,0.842,2.116V167.662z M49.546,164.859v-0.637h-1.784
				c-1.142,0-1.712,0.358-1.712,1.075c0,0.368,0.141,0.649,0.424,0.843s0.677,0.29,1.182,0.29s0.946-0.142,1.324-0.425
				C49.357,165.723,49.546,165.341,49.546,164.859z"/>
			<path fill="#FFFFFF" d="M57.218,168.016v-7.884h1.585v7.94c0,0.793-0.238,1.423-0.715,1.89c-0.477,0.468-1.052,0.701-1.727,0.701
				c-0.674,0-1.29-0.25-1.847-0.75l0.736-1.189c0.321,0.312,0.644,0.467,0.969,0.467c0.326,0,0.574-0.104,0.743-0.311
				C57.133,168.672,57.218,168.384,57.218,168.016z M57.289,158.631c-0.198-0.198-0.297-0.434-0.297-0.708
				c0-0.273,0.099-0.51,0.297-0.707c0.198-0.198,0.434-0.298,0.708-0.298c0.273,0,0.509,0.1,0.708,0.298
				c0.198,0.197,0.297,0.434,0.297,0.707c0,0.274-0.099,0.51-0.297,0.708s-0.434,0.297-0.708,0.297
				C57.723,158.928,57.487,158.829,57.289,158.631z"/>
			<path fill="#FFFFFF" d="M66.363,164.208v-4.076h1.585v7.53h-1.585v-1.373c-0.255,0.463-0.606,0.826-1.055,1.09
				c-0.448,0.265-0.932,0.396-1.451,0.396c-0.849,0-1.536-0.26-2.06-0.778c-0.523-0.52-0.786-1.27-0.786-2.251v-4.614h1.585v4.133
				c0,1.388,0.576,2.081,1.727,2.081c0.547,0,1.024-0.182,1.43-0.545S66.363,164.906,66.363,164.208z"/>
			<path fill="#FFFFFF" d="M75.606,165.411c0,0.718-0.26,1.291-0.779,1.72c-0.519,0.43-1.185,0.645-1.996,0.645
				c-0.547,0-1.116-0.1-1.706-0.297c-0.59-0.198-1.111-0.477-1.564-0.836l0.764-1.231c0.878,0.661,1.727,0.991,2.548,0.991
				c0.359,0,0.642-0.083,0.85-0.248s0.312-0.375,0.312-0.63c0-0.377-0.5-0.717-1.5-1.019c-0.076-0.028-0.132-0.048-0.17-0.057
				c-1.567-0.425-2.35-1.133-2.35-2.124c0-0.698,0.271-1.257,0.814-1.677s1.248-0.63,2.116-0.63s1.689,0.255,2.463,0.764
				l-0.595,1.175c-0.613-0.405-1.279-0.608-1.996-0.608c-0.377,0-0.684,0.068-0.92,0.205c-0.236,0.138-0.354,0.343-0.354,0.616
				c0,0.245,0.123,0.425,0.368,0.538c0.17,0.085,0.408,0.165,0.715,0.24c0.307,0.076,0.578,0.151,0.814,0.227
				s0.465,0.16,0.687,0.255s0.46,0.227,0.715,0.396C75.352,164.166,75.606,164.694,75.606,165.411z"/>
			<path fill="#FFFFFF" d="M79.357,161.405v3.822c0,0.358,0.094,0.644,0.283,0.856c0.188,0.212,0.453,0.318,0.792,0.318
				s0.666-0.165,0.977-0.495l0.651,1.118c-0.557,0.5-1.173,0.75-1.847,0.75c-0.675,0-1.25-0.233-1.727-0.701
				c-0.477-0.467-0.715-1.097-0.715-1.89v-3.779h-0.948v-1.273h0.948v-2.364h1.585v2.364h1.982v1.273H79.357z"/>
			<path fill="#FFFFFF" d="M83.42,158.631c-0.198-0.198-0.297-0.434-0.297-0.708c0-0.273,0.099-0.51,0.297-0.707
				c0.198-0.198,0.434-0.298,0.708-0.298c0.273,0,0.509,0.1,0.708,0.298c0.198,0.197,0.297,0.434,0.297,0.707
				c0,0.274-0.099,0.51-0.297,0.708s-0.434,0.297-0.708,0.297C83.854,158.928,83.618,158.829,83.42,158.631z M84.906,167.662h-1.585
				v-7.53h1.585V167.662z"/>
			<path fill="#FFFFFF" d="M90.54,167.775c-1.047,0-1.949-0.356-2.704-1.068c-0.755-0.713-1.132-1.645-1.132-2.796
				s0.394-2.088,1.182-2.811c0.788-0.722,1.749-1.082,2.881-1.082s2.09,0.392,2.874,1.175l-0.935,1.146
				c-0.651-0.566-1.307-0.85-1.967-0.85c-0.661,0-1.234,0.22-1.72,0.658c-0.486,0.438-0.729,1.005-0.729,1.699
				c0,0.693,0.241,1.28,0.722,1.762s1.073,0.722,1.776,0.722s1.366-0.32,1.989-0.962l0.935,1.019
				C92.795,167.313,91.738,167.775,90.54,167.775z"/>
			<path fill="#FFFFFF" d="M102.359,164.591h-5.903c0.038,0.547,0.288,0.988,0.75,1.323s0.991,0.502,1.585,0.502
				c0.943,0,1.661-0.297,2.151-0.892l0.906,0.991c-0.812,0.84-1.869,1.26-3.171,1.26c-1.057,0-1.956-0.352-2.697-1.055
				s-1.111-1.646-1.111-2.831s0.377-2.126,1.132-2.824c0.755-0.698,1.644-1.047,2.668-1.047s1.895,0.309,2.612,0.927
				s1.076,1.47,1.076,2.555V164.591z M96.457,163.345h4.318c0-0.632-0.198-1.118-0.595-1.458s-0.885-0.51-1.465-0.51
				c-0.58,0-1.102,0.177-1.564,0.531C96.688,162.262,96.457,162.741,96.457,163.345z"/>
			<path fill="#FFFFFF" d="M114.08,167.662h-1.444v-1.005c-0.623,0.745-1.458,1.118-2.505,1.118c-0.784,0-1.432-0.222-1.946-0.665
				c-0.515-0.443-0.771-1.036-0.771-1.776c0-0.741,0.273-1.296,0.821-1.664s1.288-0.552,2.223-0.552h2.052v-0.283
				c0-1-0.557-1.5-1.67-1.5c-0.698,0-1.425,0.255-2.18,0.764l-0.708-0.99c0.916-0.727,1.954-1.09,3.114-1.09
				c0.887,0,1.611,0.224,2.173,0.672s0.842,1.153,0.842,2.116V167.662z M112.495,164.859v-0.637h-1.784
				c-1.142,0-1.712,0.358-1.712,1.075c0,0.368,0.141,0.649,0.424,0.843s0.677,0.29,1.182,0.29s0.946-0.142,1.324-0.425
				C112.306,165.723,112.495,165.341,112.495,164.859z M112.268,159.169h-1.444l-1.727-1.359l1.67-0.693L112.268,159.169z"/>
			<path fill="#FFFFFF" d="M124.201,160.019c1.01,0,1.874,0.349,2.591,1.047c0.717,0.698,1.076,1.628,1.076,2.789
				c0,1.16-0.357,2.104-1.069,2.831c-0.712,0.727-1.543,1.09-2.491,1.09s-1.8-0.415-2.555-1.246v3.879h-1.585v-10.276h1.585v1.316
				C122.375,160.495,123.191,160.019,124.201,160.019z M121.724,163.911c0,0.717,0.217,1.305,0.651,1.762
				c0.434,0.458,0.962,0.687,1.585,0.687c0.623,0,1.165-0.226,1.628-0.679c0.462-0.453,0.693-1.041,0.693-1.763
				s-0.227-1.321-0.679-1.798c-0.453-0.477-0.996-0.715-1.628-0.715c-0.632,0-1.166,0.238-1.6,0.715
				C121.941,162.597,121.724,163.194,121.724,163.911z"/>
			<path fill="#FFFFFF" d="M135.978,166.65c-0.755,0.75-1.698,1.125-2.831,1.125s-2.076-0.375-2.831-1.125
				c-0.755-0.751-1.132-1.668-1.132-2.754c0-1.085,0.377-2.003,1.132-2.753s1.698-1.125,2.831-1.125s2.076,0.375,2.831,1.125
				s1.132,1.668,1.132,2.753C137.11,164.982,136.733,165.899,135.978,166.65z M131.442,165.673c0.447,0.458,1.016,0.687,1.705,0.687
				c0.688,0,1.258-0.229,1.705-0.687c0.449-0.457,0.673-1.049,0.673-1.776c0-0.727-0.224-1.318-0.673-1.776
				c-0.447-0.457-1.017-0.687-1.705-0.687c-0.689,0-1.258,0.229-1.705,0.687c-0.449,0.458-0.674,1.05-0.674,1.776
				C130.768,164.624,130.993,165.216,131.442,165.673z"/>
			<path fill="#FFFFFF" d="M142.858,161.618c-0.784,0-1.374,0.254-1.77,0.764c-0.396,0.51-0.596,1.194-0.596,2.053v3.228h-1.585
				v-7.53h1.585v1.515c0.256-0.473,0.602-0.859,1.041-1.161s0.903-0.458,1.395-0.467l0.014,1.6
				C142.914,161.618,142.885,161.618,142.858,161.618z"/>
			<path fill="#FFFFFF" d="M146.481,161.405v3.822c0,0.358,0.094,0.644,0.283,0.856c0.188,0.212,0.453,0.318,0.793,0.318
				s0.665-0.165,0.977-0.495l0.65,1.118c-0.557,0.5-1.172,0.75-1.847,0.75s-1.251-0.233-1.728-0.701
				c-0.477-0.467-0.715-1.097-0.715-1.89v-3.779h-0.947v-1.273h0.947v-2.364h1.586v2.364h1.982v1.273H146.481z"/>
			<path fill="#FFFFFF" d="M157.452,164.591h-5.903c0.038,0.547,0.288,0.988,0.751,1.323c0.462,0.335,0.99,0.502,1.585,0.502
				c0.943,0,1.661-0.297,2.151-0.892l0.906,0.991c-0.812,0.84-1.869,1.26-3.171,1.26c-1.058,0-1.956-0.352-2.696-1.055
				c-0.741-0.703-1.111-1.646-1.111-2.831s0.377-2.126,1.133-2.824c0.754-0.698,1.644-1.047,2.668-1.047
				c1.023,0,1.895,0.309,2.611,0.927s1.076,1.47,1.076,2.555V164.591z M151.548,163.345h4.317c0-0.632-0.197-1.118-0.594-1.458
				s-0.885-0.51-1.466-0.51c-0.58,0-1.102,0.177-1.563,0.531C151.78,162.262,151.548,162.741,151.548,163.345z M154.62,159.141
				h-1.443l1.5-2.053l1.671,0.693L154.62,159.141z"/>
			<path fill="#FFFFFF" d="M166.2,164.591h-5.903c0.038,0.547,0.288,0.988,0.751,1.323c0.462,0.335,0.99,0.502,1.585,0.502
				c0.943,0,1.661-0.297,2.151-0.892l0.906,0.991c-0.812,0.84-1.869,1.26-3.171,1.26c-1.058,0-1.956-0.352-2.696-1.055
				c-0.741-0.703-1.111-1.646-1.111-2.831s0.377-2.126,1.133-2.824c0.754-0.698,1.644-1.047,2.668-1.047
				c1.023,0,1.895,0.309,2.611,0.927s1.076,1.47,1.076,2.555V164.591z M160.296,163.345h4.317c0-0.632-0.197-1.118-0.594-1.458
				s-0.885-0.51-1.466-0.51c-0.58,0-1.102,0.177-1.563,0.531C160.528,162.262,160.296,162.741,160.296,163.345z"/>
			<path fill="#FFFFFF" d="M172.399,166.699c-0.707-0.717-1.061-1.66-1.061-2.831c0-1.17,0.362-2.104,1.09-2.803
				c0.727-0.698,1.592-1.047,2.598-1.047c1.004,0,1.813,0.424,2.427,1.273v-4.133h1.585v10.503h-1.585v-1.133
				c-0.585,0.831-1.438,1.246-2.562,1.246C173.938,167.775,173.107,167.417,172.399,166.699z M172.922,163.933
				c0,0.722,0.232,1.309,0.694,1.762s1.005,0.68,1.628,0.68s1.151-0.229,1.586-0.687c0.434-0.458,0.65-1.045,0.65-1.763
				c0-0.717-0.217-1.316-0.65-1.798c-0.435-0.48-0.969-0.722-1.6-0.722c-0.633,0-1.176,0.241-1.629,0.722
				C173.149,162.608,172.922,163.21,172.922,163.933z"/>
			<path fill="#FFFFFF" d="M188.338,164.591h-5.903c0.038,0.547,0.288,0.988,0.751,1.323c0.462,0.335,0.99,0.502,1.585,0.502
				c0.943,0,1.661-0.297,2.151-0.892l0.906,0.991c-0.812,0.84-1.869,1.26-3.171,1.26c-1.058,0-1.956-0.352-2.696-1.055
				c-0.741-0.703-1.111-1.646-1.111-2.831s0.377-2.126,1.133-2.824c0.754-0.698,1.644-1.047,2.668-1.047
				c1.023,0,1.895,0.309,2.611,0.927s1.076,1.47,1.076,2.555V164.591z M182.435,163.345h4.317c0-0.632-0.197-1.118-0.594-1.458
				s-0.885-0.51-1.466-0.51c-0.58,0-1.102,0.177-1.563,0.531C182.667,162.262,182.435,162.741,182.435,163.345z"/>
			<path fill="#FFFFFF" d="M197.298,167.775c-1.048,0-1.949-0.356-2.704-1.068c-0.755-0.713-1.132-1.645-1.132-2.796
				s0.394-2.088,1.182-2.811c0.788-0.722,1.748-1.082,2.881-1.082s2.09,0.392,2.873,1.175l-0.934,1.146
				c-0.651-0.566-1.308-0.85-1.968-0.85c-0.661,0-1.234,0.22-1.72,0.658c-0.486,0.438-0.729,1.005-0.729,1.699
				c0,0.693,0.241,1.28,0.722,1.762c0.481,0.481,1.074,0.722,1.777,0.722c0.702,0,1.365-0.32,1.988-0.962l0.935,1.019
				C199.553,167.313,198.497,167.775,197.298,167.775z"/>
			<path fill="#FFFFFF" d="M203.697,167.662h-1.586v-10.503h1.586V167.662z"/>
			<path fill="#FFFFFF" d="M206.088,158.631c-0.198-0.198-0.298-0.434-0.298-0.708c0-0.273,0.1-0.51,0.298-0.707
				c0.198-0.198,0.434-0.298,0.707-0.298s0.51,0.1,0.708,0.298c0.198,0.197,0.297,0.434,0.297,0.707c0,0.274-0.099,0.51-0.297,0.708
				s-0.435,0.297-0.708,0.297S206.287,158.829,206.088,158.631z M207.575,167.662h-1.586v-7.53h1.586V167.662z"/>
			<path fill="#FFFFFF" d="M213.208,167.775c-1.048,0-1.949-0.356-2.704-1.068c-0.755-0.713-1.132-1.645-1.132-2.796
				s0.394-2.088,1.182-2.811c0.788-0.722,1.748-1.082,2.881-1.082s2.09,0.392,2.873,1.175l-0.934,1.146
				c-0.651-0.566-1.308-0.85-1.968-0.85c-0.661,0-1.234,0.22-1.72,0.658c-0.486,0.438-0.729,1.005-0.729,1.699
				c0,0.693,0.241,1.28,0.722,1.762c0.481,0.481,1.074,0.722,1.777,0.722c0.702,0,1.365-0.32,1.988-0.962l0.935,1.019
				C215.462,167.313,214.406,167.775,213.208,167.775z"/>
		</g>
		<g>
			<path d="M40.475,136.145V133.3h7.729v9.683c0,1.77-0.457,3.093-1.37,3.97c-0.913,0.878-2.084,1.316-3.514,1.316
				c-1.783,0-3.341-0.686-4.671-2.06l1.72-2.378c0.892,0.963,1.826,1.444,2.803,1.444c0.467,0,0.867-0.181,1.2-0.542
				c0.333-0.36,0.499-0.902,0.499-1.624v-6.965H40.475z"/>
			<path d="M59.67,142.876v-6.158h3.206v11.424H59.67v-1.508c-0.793,1.118-1.815,1.678-3.068,1.678
				c-1.252,0-2.304-0.393-3.153-1.179c-0.85-0.785-1.274-1.949-1.274-3.492v-6.923h3.206v6.222c0,1.756,0.644,2.633,1.932,2.633
				c0.637,0,1.189-0.229,1.656-0.69C59.437,144.423,59.67,143.754,59.67,142.876z"/>
			<path d="M72.962,139.521c-0.949,0-1.656,0.337-2.124,1.009c-0.467,0.673-0.701,1.561-0.701,2.665v4.947h-3.185v-11.424h3.185
				v1.508c0.411-0.467,0.924-0.863,1.54-1.188c0.616-0.326,1.242-0.496,1.879-0.51l0.021,2.993H72.962z"/>
			<path d="M77.007,135.264c-0.361-0.361-0.542-0.803-0.542-1.327c0-0.523,0.181-0.966,0.542-1.327
				c0.361-0.36,0.803-0.542,1.327-0.542c0.523,0,0.966,0.182,1.327,0.542c0.361,0.361,0.542,0.804,0.542,1.327
				c0,0.524-0.181,0.966-0.542,1.327c-0.361,0.361-0.804,0.541-1.327,0.541C77.81,135.805,77.368,135.625,77.007,135.264z
				 M79.926,148.142h-3.185v-11.424h3.185V148.142z"/>
			<path d="M87.793,136.262c-0.319,0.262-0.478,0.608-0.478,1.04c0,0.433,0.194,0.775,0.584,1.03
				c0.389,0.255,1.288,0.556,2.697,0.902c1.408,0.347,2.502,0.867,3.28,1.561s1.168,1.706,1.168,3.036
				c0,1.331-0.499,2.41-1.497,3.238s-2.311,1.242-3.938,1.242c-2.35,0-4.466-0.871-6.349-2.611l1.975-2.421
				c1.599,1.401,3.079,2.102,4.438,2.102c0.608,0,1.086-0.13,1.433-0.393c0.347-0.262,0.521-0.615,0.521-1.062
				s-0.184-0.8-0.552-1.062s-1.097-0.527-2.187-0.796c-1.727-0.411-2.991-0.945-3.79-1.604c-0.8-0.658-1.2-1.691-1.2-3.1
				c0-1.409,0.506-2.495,1.518-3.26s2.275-1.146,3.79-1.146c0.991,0,1.982,0.17,2.973,0.51s1.854,0.821,2.591,1.443l-1.678,2.421
				c-1.288-0.977-2.619-1.465-3.992-1.465C88.546,135.869,88.111,136,87.793,136.262z"/>
			<path d="M108.505,146.485c-1.289,1.218-2.8,1.826-4.533,1.826c-1.734,0-3.167-0.534-4.3-1.604
				c-1.133-1.068-1.699-2.502-1.699-4.3c0-1.797,0.577-3.227,1.73-4.289c1.153-1.062,2.516-1.592,4.087-1.592
				s2.905,0.475,4.002,1.422c1.097,0.949,1.646,2.251,1.646,3.907v1.699h-8.323c0.099,0.623,0.424,1.132,0.977,1.528
				s1.175,0.595,1.869,0.595c1.118,0,2.038-0.375,2.76-1.126L108.505,146.485z M105.448,139.712
				c-0.439-0.368-0.974-0.552-1.603-0.552c-0.63,0-1.207,0.19-1.73,0.573c-0.524,0.382-0.828,0.899-0.913,1.55h5.011
				C106.141,140.604,105.886,140.08,105.448,139.712z"/>
			<path d="M118.804,139.521c-0.949,0-1.656,0.337-2.124,1.009c-0.467,0.673-0.701,1.561-0.701,2.665v4.947h-3.185v-11.424h3.185
				v1.508c0.411-0.467,0.924-0.863,1.54-1.188c0.616-0.326,1.242-0.496,1.879-0.51l0.021,2.993H118.804z"/>
			<path d="M125.662,148.142l-4.523-11.444h3.312l2.845,7.197l2.845-7.197h3.312l-4.521,11.444H125.662z"/>
			<path d="M136.352,135.264c-0.361-0.361-0.541-0.803-0.541-1.327c0-0.523,0.18-0.966,0.541-1.327
				c0.361-0.36,0.803-0.542,1.327-0.542c0.523,0,0.966,0.182,1.327,0.542c0.361,0.361,0.541,0.804,0.541,1.327
				c0,0.524-0.18,0.966-0.541,1.327s-0.804,0.541-1.327,0.541C137.155,135.805,136.713,135.625,136.352,135.264z M139.272,148.142
				h-3.186v-11.424h3.186V148.142z"/>
			<path d="M148.827,145.487c1.061,0,2.017-0.53,2.865-1.593l1.891,2.124c-1.473,1.528-3.064,2.293-4.777,2.293
				s-3.16-0.541-4.343-1.624c-1.182-1.083-1.772-2.499-1.772-4.247s0.598-3.171,1.794-4.268s2.614-1.646,4.257-1.646
				c0.821,0,1.652,0.17,2.495,0.51c0.843,0.339,1.582,0.842,2.22,1.507l-1.656,2.166c-0.369-0.438-0.818-0.778-1.35-1.02
				c-0.53-0.24-1.058-0.36-1.581-0.36c-0.835,0-1.554,0.272-2.155,0.817s-0.902,1.303-0.902,2.271c0,0.97,0.301,1.724,0.902,2.262
				S148.019,145.487,148.827,145.487z"/>
			<path d="M166.663,146.485c-1.289,1.218-2.801,1.826-4.533,1.826c-1.734,0-3.168-0.534-4.301-1.604
				c-1.133-1.068-1.698-2.502-1.698-4.3c0-1.797,0.577-3.227,1.73-4.289c1.153-1.062,2.517-1.592,4.087-1.592
				c1.572,0,2.906,0.475,4.003,1.422c1.097,0.949,1.646,2.251,1.646,3.907v1.699h-8.323c0.099,0.623,0.425,1.132,0.977,1.528
				s1.175,0.595,1.868,0.595c1.119,0,2.039-0.375,2.761-1.126L166.663,146.485z M163.604,139.712
				c-0.438-0.368-0.973-0.552-1.603-0.552s-1.207,0.19-1.73,0.573c-0.524,0.382-0.828,0.899-0.913,1.55h5.011
				C164.297,140.604,164.043,140.08,163.604,139.712z"/>
			<path d="M171.174,147.771c-0.361-0.361-0.542-0.804-0.542-1.327c0-0.524,0.181-0.967,0.542-1.327
				c0.36-0.361,0.803-0.542,1.326-0.542s0.967,0.181,1.328,0.542c0.36,0.36,0.541,0.803,0.541,1.327
				c0,0.523-0.181,0.966-0.541,1.327c-0.361,0.36-0.805,0.541-1.328,0.541S171.535,148.131,171.174,147.771z"/>
			<path d="M181.313,141.771v6.37h-3.186v-11.424h3.186v1.274c0.962-0.977,2.045-1.465,3.248-1.465s2.212,0.425,3.025,1.273
				c0.814,0.85,1.222,1.982,1.222,3.397v6.943h-3.185v-6.455c0-1.755-0.645-2.633-1.933-2.633c-0.638,0-1.192,0.23-1.667,0.69
				S181.313,140.88,181.313,141.771z"/>
			<path d="M202.652,146.485c-1.287,1.218-2.799,1.826-4.533,1.826s-3.168-0.534-4.299-1.604c-1.133-1.068-1.699-2.502-1.699-4.3
				c0-1.797,0.576-3.227,1.73-4.289c1.154-1.062,2.516-1.592,4.088-1.592c1.57,0,2.904,0.475,4.002,1.422
				c1.098,0.949,1.646,2.251,1.646,3.907v1.699h-8.324c0.1,0.623,0.424,1.132,0.977,1.528s1.176,0.595,1.869,0.595
				c1.117,0,2.037-0.375,2.76-1.126L202.652,146.485z M199.595,139.712c-0.439-0.368-0.975-0.552-1.604-0.552
				c-0.631,0-1.207,0.19-1.73,0.573c-0.523,0.382-0.828,0.899-0.914,1.55h5.012C200.289,140.604,200.033,140.08,199.595,139.712z"/>
			<path d="M210.615,139.012v5.117c0,0.438,0.113,0.782,0.34,1.029c0.226,0.248,0.495,0.372,0.807,0.372
				c0.595,0,1.097-0.27,1.508-0.808l1.188,2.229c-0.991,0.906-2.035,1.359-3.132,1.359s-2.024-0.361-2.781-1.083
				c-0.758-0.722-1.136-1.705-1.136-2.951v-5.266h-1.338v-2.294h1.338V133.3h3.206v3.418h2.76v2.294H210.615z"/>
		</g>
		<line fill="none" stroke="#000100" stroke-miterlimit="10" x1="0.874" y1="118.216" x2="252.874" y2="118.216"/>
		<g>
			<path fill="#FFFFFF" d="M176.091,110.065c-0.111-0.021-0.204-0.096-0.247-0.2l-6.919-16.77c-0.05-0.12-0.024-0.258,0.064-0.353
				c0.064-0.068,0.152-0.104,0.242-0.104c0.036,0,0.071,0.005,0.106,0.018l17.176,5.838c0.106,0.036,0.188,0.124,0.215,0.233
				s-0.003,0.225-0.079,0.307l-3.516,3.747l3.188,2.991c0.064,0.061,0.102,0.144,0.104,0.231s-0.029,0.174-0.09,0.237l-2.873,3.061
				c-0.064,0.069-0.153,0.104-0.241,0.104c-0.081,0-0.161-0.029-0.226-0.088l-3.207-2.973l-3.396,3.62
				c-0.063,0.067-0.151,0.104-0.242,0.104C176.131,110.07,176.111,110.069,176.091,110.065z"/>
			<path fill="#000100" d="M169.232,92.97l17.176,5.838l-3.742,3.988l3.43,3.219l-2.873,3.061l-3.449-3.196l-3.622,3.86
				L169.232,92.97 M169.232,92.307c-0.18,0-0.356,0.073-0.483,0.209c-0.178,0.19-0.229,0.467-0.13,0.707l6.919,16.77
				c0.086,0.208,0.272,0.358,0.494,0.399c0.039,0.007,0.079,0.011,0.119,0.011c0.182,0,0.357-0.074,0.483-0.209l3.171-3.38
				l2.967,2.748c0.127,0.118,0.289,0.177,0.45,0.177c0.177,0,0.353-0.07,0.483-0.209l2.873-3.061c0.12-0.129,0.185-0.3,0.18-0.475
				c-0.006-0.176-0.081-0.343-0.209-0.463l-2.946-2.765l3.288-3.505c0.154-0.165,0.215-0.396,0.16-0.615
				c-0.055-0.218-0.217-0.395-0.43-0.467l-17.176-5.838C169.375,92.318,169.303,92.307,169.232,92.307L169.232,92.307z"/>
		</g>
	</g>
</g>
</svg>
